
{
    "model": {
        "learning_rate": 1e-5,
        "epochs": 1000,
        "num_classes": 10,
        "batch_size":50,
        "routing_initializer": "tnormal_1.0_0",
        "type":"CapsNet"
    },
    "layers":  {
                "conv1" : {
                    "kernel_size": 5,
                    "filters": 32,
                    "strides":2,
                    "use_bias": true,
                    "kernel_regularizer": "l2_5e-04",
                    "bias_initializer": "tnormal_0.01_0",
                    "use_bn": false,
                    "activation":"relu",
                    "padding":"VALID",
                    "build_code":"conv"
                },
                "PrimaryCaps": {
                    "strides":1,
                    "kernel_size": 1,
                    "num_capsules": 17,
                    "routing_matrix_size":4,
                    "routing_activation_unit":"logistic",
                    "kernel_regularizer": "l2_5e-04",
                    "bias_initializer": "tnormal_0.01_0",
                    "routing_initializer": "tnormal_1.0_0",
                    "build_code":"capsule_conv"
                },
                "ConvCaps": {
                    "strides":2,
                    "kernel_size": 3,
                    "num_capsules": 32,
                    "routing_iterations": 3,
                    "routing_matrix_size":4,
                    "routing_initializer": "tnormal_1.0_0",
                    "bias_initializer": "tnormal_0.01_0",
                    "routing_regularizer": "l2_5e-04",
                    "routing": "em",
                    "build_code":"capsule_conv"
                },
                "ClassCaps": {
                    "bias_initializer": "tnormal_0.01_0",
                    "kernel_regularizer": "l2_5e-04",
                    "routing_regularizer": "l2_5e-04",
                    "routing": "em",
                    "routing_iterations": 3,
                    "routing_matrix_size":4,
                    "routing_initializer": "tnormal_1.0_0",
                    "num_capsules":"num_classes",
                    "build_code":"capsule_fc",
                    "summary":"histogram"
                }
}}
